<svg width="13" height="10" viewBox="0 0 13 10" fill="none" xmlns="http://www.w3.org/2000/svg">
<path d="M7.71967 1.53033C7.42678 1.23744 7.42678 0.762563 7.71967 0.46967C8.01256 0.176777 8.48744 0.176777 8.78033 0.46967L12.7803 4.46967C13.0732 4.76256 13.0732 5.23744 12.7803 5.53033L8.78033 9.53033C8.48744 9.82322 8.01256 9.82322 7.71967 9.53033C7.42678 9.23744 7.42678 8.76256 7.71967 8.46967L10.4393 5.75H0.75C0.335787 5.75 0 5.41421 0 5C0 4.58579 0.335787 4.25 0.75 4.25H10.4393L7.71967 1.53033Z" fill="black"/>
</svg>
