<svg width="28" height="28" viewBox="0 0 28 28" xmlns="http://www.w3.org/2000/svg">
<path d="M5.75391 14C5.75391 13.317 6.30851 12.7633 6.99265 12.7633H12.7613V7.00392C12.7613 6.32089 13.3159 5.76718 14 5.76718C14.6842 5.76718 15.2388 6.32089 15.2388 7.00392V12.7633H21.0075C21.6916 12.7633 22.2462 13.317 22.2462 14C22.2462 14.683 21.6916 15.2367 21.0075 15.2367H15.2388V20.996C15.2388 21.6791 14.6842 22.2328 14 22.2328C13.3159 22.2328 12.7613 21.6791 12.7613 20.996V15.2367H6.99265C6.30851 15.2367 5.75391 14.683 5.75391 14Z"/>
<path fill-rule="evenodd" clip-rule="evenodd" d="M6.26485 0.426774C11.3644 -0.142258 16.6356 -0.142258 21.7352 0.426774C24.7517 0.763373 27.1878 3.13568 27.5426 6.1648C28.1525 11.3705 28.1525 16.6295 27.5426 21.8352C27.1878 24.8643 24.7517 27.2366 21.7352 27.5732C16.6356 28.1423 11.3644 28.1423 6.26484 27.5732C3.24828 27.2366 0.812242 24.8643 0.457384 21.8352C-0.152461 16.6295 -0.152461 11.3705 0.457384 6.1648C0.812242 3.13568 3.24828 0.763373 6.26485 0.426774ZM21.46 2.88495C16.5433 2.33633 11.4567 2.33633 6.54003 2.88495C4.64981 3.09587 3.1368 4.58531 2.91811 6.45214C2.33063 11.467 2.33063 16.533 2.91811 21.5479C3.1368 23.4147 4.64981 24.9041 6.54003 25.115C11.4567 25.6637 16.5433 25.6637 21.46 25.115C23.3502 24.9041 24.8632 23.4147 25.0819 21.5479C25.6694 16.533 25.6694 11.467 25.0819 6.45214C24.8632 4.58531 23.3502 3.09587 21.46 2.88495Z"/>
</svg>
